Gathering, Spreading, Separating, and Uniting
…
movies <- read_csv(url("http://govfinance.byu.edu/govfinance/classes/dataScience/lectures/illustrations/movies.csv"))

Read an entire workspace

# Load workspace
load(url("http://govfinance.byu.edu/govfinance/classes/dataScience/lectures/illustrations/movies_fitness.RData"))

Mechanics of gathering with an illustration using Excel

fitness %>% 
  select(name, runpulse:maxpulse) %>% 
  gather(runpulse:maxpulse, key = pulse_type, value = pulse)

## # A tibble: 93 x 3
##    name    pulse_type pulse
##    <chr>   <chr>      <dbl>
##  1 Donna   runpulse     166
##  2 Gracie  runpulse     170
##  3 Luanne  runpulse     156
##  4 Mimi    runpulse     146
##  5 Chris   runpulse     180
##  6 Allen   runpulse     178
##  7 Nancy   runpulse     186
##  8 Patty   runpulse     164
##  9 Suzanne runpulse     148
## 10 Teresa  runpulse     162
## # ... with 83 more rows
…
Gathering with all variables

movies %>% 
  gather(domestic, worldwide, key = source, value = revenue)

## # A tibble: 554 x 7
##    movie               type         rating  year director        source  revenue
##    <chr>               <chr>        <chr>  <dbl> <chr>           <chr>     <dbl>
##  1 'Crocodile' Dundee~ Comedy       PG      1988 J. Cornell      domest~    109.
##  2 101 Dalmatians      Family       G       1996 S. Herek        domest~    136.
##  3 8 Mile              Drama        R       2002 C. Hanson       domest~    117.
##  4 A Beautiful Mind    Drama        PG-13   2001 R. Howard       domest~    171.
##  5 A Bug's Life        Family       G       1998 J. Lasseter/A.~ domest~    163.
##  6 A Few Good Men      Drama        R       1992 R. Reiner       domest~    141.
##  7 A League of Their ~ Comedy       PG      1992 P. Marshall     domest~    107.
##  8 A Time to Kill      Mystery-Sus~ R       1996 J. Schumacher   domest~    108.
##  9 Ace Ventura: When ~ Comedy       PG-13   1995 S. Oedekerk     domest~    108.
## 10 Air Force One       Mystery-Sus~ R       1997 W. Petersen     domest~    173 
## # ... with 544 more rows

Gathering with a subset of variables

movies %>% 
  select(year, domestic, worldwide) %>% 
  gather(domestic, worldwide, key = source, value = revenue)

## # A tibble: 554 x 3
##     year source   revenue
##    <dbl> <chr>      <dbl>
##  1  1988 domestic    109.
##  2  1996 domestic    136.
##  3  2002 domestic    117.
##  4  2001 domestic    171.
##  5  1998 domestic    163.
##  6  1992 domestic    141.
##  7  1992 domestic    107.
##  8  1996 domestic    108.
##  9  1995 domestic    108.
## 10  1997 domestic    173 
## # ... with 544 more rows
…
