Gathering and Spreading
…
Create tibbles and data frames from the FRED data

# Extract the date from the zoo object
dates <- revenue %>%
  time() %>%
  as.Date()

# Create a tibble
revenue_tbl <- tibble(dates, as.vector(revenue$sales), as.vector(revenue$income))
colnames(revenue_tbl) <- c("dates", "sales", "income")
revenue_tbl

## # A tibble: 24 x 3
##    dates      sales income
##    <date>     <dbl>  <dbl>
##  1 1993-01-01 15.8    7.77
##  2 1994-01-01  6.65   9.85
##  3 1995-01-01  8.09  10.7 
##  4 1996-01-01  8.24  11.2 
##  5 1997-01-01  7.68   8.63
##  6 1998-01-01 12.0   11.1 
##  7 1999-01-01  4.44   6.31
##  8 2000-01-01  3.92  13.0 
##  9 2001-01-01  2.90   3.26
## 10 2002-01-01  2.18  -5.86
## # ... with 14 more rows
…
# Time series of income and sales taxes in Utah using Quandl
revenue <- Quandl(c("FRED/UTSLGRTAX", "FRED/UTINCTAX"),
                  transform = "rdiff") %>% as.tibble()
colnames(revenue) <- c("dates", "sales", "income")
revenue_tbl <- revenue %>% mutate(sales = sales * 100, income = income * 100)
revenue_tbl %>% str()

## Classes 'tbl_df', 'tbl' and 'data.frame':    24 obs. of  3 variables:
##  $ dates : Date, format: "1993-01-01" "1994-01-01" ...
##  $ sales : num  15.77 6.65 8.09 8.24 7.68 ...
##  $ income: num  7.77 9.85 10.71 11.23 8.63 ...

revenue_tbl

## # A tibble: 24 x 3
##    dates      sales income
##    <date>     <dbl>  <dbl>
##  1 1993-01-01 15.8    7.77
##  2 1994-01-01  6.65   9.85
##  3 1995-01-01  8.09  10.7 
##  4 1996-01-01  8.24  11.2 
##  5 1997-01-01  7.68   8.63
##  6 1998-01-01 12.0   11.1 
##  7 1999-01-01  4.44   6.31
##  8 2000-01-01  3.92  13.0 
##  9 2001-01-01  2.90   3.26
## 10 2002-01-01  2.18  -5.86
## # ... with 14 more rows
…
