Select and Mutate
…
View the largest diamonds by size

View the largest diamonds by price

largest <- diamonds %>%
  mutate(size_rank = min_rank(desc(carat)),
         price_rank = min_rank(desc(price)))

# Largest by size
largest %>%
  arrange(size_rank) %>%
  select(carat, size_rank)

## # A tibble: 53,940 x 2
##    carat size_rank
##    <dbl>     <int>
##  1  5.01         1
##  2  4.5          2
##  3  4.13         3
##  4  4.01         4
##  5  4.01         4
##  6  4            6
##  7  3.67         7
##  8  3.65         8
##  9  3.51         9
## 10  3.5         10
## # ... with 53,930 more rows

head(10)

## [1] 10

# Largest by price
largest %>%
  arrange(price_rank) %>%
  select(price, price_rank)

## # A tibble: 53,940 x 2
##    price price_rank
##    <int>      <int>
##  1 18823          1
##  2 18818          2
##  3 18806          3
##  4 18804          4
##  5 18803          5
##  6 18797          6
##  7 18795          7
##  8 18795          7
##  9 18791          9
## 10 18791          9
## # ... with 53,930 more rows
…
